{
  "profiles": {
    "Docker Compose": {
      "commandName": "DockerCompose",
      "commandVersion": "1.0",
      "composeLaunchAction": "LaunchBrowser",
      "composeLaunchServiceName": "api-gateway",
      //"composeLaunchServiceName": "OrderingApi",
      //"composeLaunchServiceName": "ShippingApi",
      "composeLaunchUrl": "{Scheme}://localhost:{ServicePort}/swagger",
      "serviceActions": {
        "OrderingApi": "StartDebugging",
        "ShippingApi": "StartDebugging"
      }
    }
  }
}