{
  "Routes": [
    {
      "DownstreamPathTemplate": "/api/{everything}",
      "ServiceName": "courierservice",
      "UpstreamPathTemplate": "/courierservice/{everything}",
      "UpstreamHttpMethod": [ "Get", "Post", "Put", "Delete" ],
      "SwaggerKey": "courierservice"
    }
  ]
}
